{
  "manage": {
    "name": "Manage",
    "section": "dev",
    "groups": [
      "access",
      "compliance",
      "import",
      "optimize"
    ],
    "label": "devops::manage"
  },
  "plan": {
    "name": "Plan",
    "section": "dev",
    "groups": [
      "project_management",
      "product_planning",
      "certify"
    ],
    "label": "devops::plan"
  },
  "create": {
    "name": "Create",
    "section": "dev",
    "groups": [
      "source_code",
      "code_review",
      "editor",
      "gitaly",
      "ecosystem"
    ],
    "label": "devops::create"
  },
  "verify": {
    "name": "Verify",
    "section": "ops",
    "groups": [
      "continuous_integration",
      "pipeline_authoring",
      "runner",
      "testing"
    ],
    "label": "devops::verify"
  },
  "package": {
    "name": "Package",
    "section": "ops",
    "groups": [
      "package"
    ],
    "label": "devops::package"
  },
  "secure": {
    "name": "Secure",
    "section": "sec",
    "groups": [
      "static_analysis",
      "dynamic_analysis",
      "composition_analysis",
      "fuzz_testing",
      "threat_insights",
      "vulnerability_research"
    ],
    "label": "devops::secure"
  },
  "release": {
    "name": "Release",
    "section": "ops",
    "groups": [
      "release"
    ],
    "label": "devops::release"
  },
  "configure": {
    "name": "Configure",
    "section": "ops",
    "groups": [
      "configure"
    ],
    "label": "devops::configure"
  },
  "monitor": {
    "name": "Monitor",
    "section": "ops",
    "groups": [
      "monitor"
    ],
    "label": "devops::monitor"
  },
  "protect": {
    "name": "Protect",
    "section": "sec",
    "groups": [
      "container_security"
    ],
    "label": "devops::protect"
  },
  "fulfillment": {
    "name": "Fulfillment",
    "section": "fulfillment",
    "groups": [
      "purchase",
      "provision"
    ],
    "label": "devops::fulfillment"
  },
  "growth": {
    "name": "Growth",
    "section": "growth",
    "groups": [
      "activation",
      "conversion",
      "expansion",
      "adoption",
      "product_analytics"
    ],
    "label": "devops::growth"
  },
  "enablement": {
    "name": "Enablement",
    "section": "enablement",
    "groups": [
      "distribution",
      "geo",
      "memory",
      "global_search",
      "database",
      "infrastructure"
    ],
    "label": "devops::enablement"
  },
  "learn": {
    "name": "Learn",
    "section": "spg",
    "groups": [
      "ML/AI"
    ],
    "label": "devops::learn"
  },
  "mobile": {
    "name": "Mobile",
    "section": "spg",
    "groups": [
      "moble_devops"
    ],
    "label": "devops::mobile"
  },
  "deploy": {
    "name": "Deploy",
    "section": "spg",
    "groups": [
      "5-min-app"
    ],
    "label": "devops::deploy"
  }
}
